{
  "formatVersion": 1,
  "database": {
    "version": 1,
    "identityHash": "34d0fae56ea73fcfc459a75806b8882b",
    "entities": [
      {
        "tableName": "photos",
        "createSql": "CREATE TABLE IF NOT EXISTS `${TABLE_NAME}` (`photo_name` TEXT NOT NULL, `lighting` TEXT NOT NULL, `area` TEXT NOT NULL, `gender` TEXT NOT NULL, `attributes` TEXT NOT NULL, `filters` TEXT NOT NULL, `nickname` TEXT NOT NULL, `mask_type` INTEGER NOT NULL, PRIMARY KEY(`photo_name`))",
        "fields": [
          {
            "fieldPath": "photoName",
            "columnName": "photo_name",
            "affinity": "TEXT",
            "notNull": true
          },
          {
            "fieldPath": "lighting",
            "columnName": "lighting",
            "affinity": "TEXT",
            "notNull": true
          },
          {
            "fieldPath": "area",
            "columnName": "area",
            "affinity": "TEXT",
            "notNull": true
          },
          {
            "fieldPath": "gender",
            "columnName": "gender",
            "affinity": "TEXT",
            "notNull": true
          },
          {
            "fieldPath": "attributes",
            "columnName": "attributes",
            "affinity": "TEXT",
            "notNull": true
          },
          {
            "fieldPath": "filters",
            "columnName": "filters",
            "affinity": "TEXT",
            "notNull": true
          },
          {
            "fieldPath": "nickname",
            "columnName": "nickname",
            "affinity": "TEXT",
            "notNull": true
          },
          {
            "fieldPath": "maskType",
            "columnName": "mask_type",
            "affinity": "INTEGER",
            "notNull": true
          }
        ],
        "primaryKey": {
          "columnNames": [
            "photo_name"
          ],
          "autoGenerate": false
        },
        "indices": [],
        "foreignKeys": []
      }
    ],
    "views": [],
    "setupQueries": [
      "CREATE TABLE IF NOT EXISTS room_master_table (id INTEGER PRIMARY KEY,identity_hash TEXT)",
      "INSERT OR REPLACE INTO room_master_table (id,identity_hash) VALUES(42, '34d0fae56ea73fcfc459a75806b8882b')"
    ]
  }
}